…
``` r
nan_experiment[["run_results"]][c(
  "replication", "count_unseen_nurse", "mean_waiting_time_nurse"
)]
```

    ## # A tibble: 100 × 3
    ##    replication count_unseen_nurse mean_waiting_time_nurse
    ##          <int>              <int>                   <dbl>
    ##  1           1                116                    21.8
    ##  2           2                121                    13.0
    ##  3           3                127                    15.9
    ##  4           4                105                    19.0
    ##  5           5                105                    20.2
    ##  6           6                112                    20.3
    ##  7           7                139                    25.1
    ##  8           8                102                    27.0
    ##  9           9                102                    23.6
    ## 10          10                112                    16.1
    ## # ℹ 90 more rows
…
