…
# Run model
result <- runner(param)
```

For each replication, find the average result per interval in the
simulation.

``` r
interval_audit <- get_interval_means(result, interval_size = 50L)
interval_audit
```

    ## [[1]]
    ## # A tibble: 5,000 × 3
    ##    interval replication arrivals
    ##       <dbl>       <int>    <int>
    ##  1       50           1        8
    ##  2       50           2       15
    ##  3       50           3       17
    ##  4       50           4       12
    ##  5       50           5       21
    ##  6      100           1       13
    ##  7      100           2        6
    ##  8      100           3       18
    ##  9      100           4       10
    ## 10      100           5       10
    ## # ℹ 4,990 more rows
    ## 
    ## [[2]]
    ## # A tibble: 5,000 × 3
    ##    interval replication mean_waiting_time_nurse
    ##       <dbl>       <int>                   <dbl>
    ##  1       50           1                  0     
    ##  2       50           2                  0.128 
    ##  3       50           3                  0     
    ##  4       50           4                  0     
    ##  5       50           5                  0.320 
    ##  6      100           1                  0.0389
    ##  7      100           2                  0     
    ##  8      100           3                  0.0136
    ##  9      100           4                  0     
    ## 10      100           5                  0.135 
    ## # ℹ 4,990 more rows
    ## 
    ## [[3]]
    ## # A tibble: 5,000 × 3
    ##    interval replication mean_serve_time_nurse
    ##       <dbl>       <int>                 <dbl>
    ##  1       50           1                  7.04
    ##  2       50           2                  9.76
    ##  3       50           3                 12.2 
    ##  4       50           4                 10.6 
    ##  5       50           5                  9.27
    ##  6      100           1                  7.49
    ##  7      100           2                  9.12
    ##  8      100           3                 10.6 
    ##  9      100           4                 11.6 
    ## 10      100           5                  8.01
    ## # ℹ 4,990 more rows
    ## 
    ## [[4]]
    ## # A tibble: 5,000 × 3
    ##    interval replication utilisation_nurse
    ##       <dbl>       <int>             <dbl>
    ##  1       50           1             0.281
    ##  2       50           2             0.461
    ##  3       50           3             0.760
    ##  4       50           4             0.540
    ##  5       50           5             0.726
    ##  6      100           1             0.398
    ##  7      100           2             0.304
    ##  8      100           3             0.518
    ##  9      100           4             0.295
    ## 10      100           5             0.326
    ## # ℹ 4,990 more rows
    ## 
    ## [[5]]
    ## # A tibble: 5,000 × 3
    ##    interval replication count_unseen_nurse
    ##       <dbl>       <int>              <int>
    ##  1       50           1                  0
    ##  2       50           2                  0
    ##  3       50           3                  0
    ##  4       50           4                  0
    ##  5       50           5                  0
    ##  6      100           1                  0
    ##  7      100           2                  0
    ##  8      100           3                  0
    ##  9      100           4                  0
    ## 10      100           5                  0
    ## # ℹ 4,990 more rows
    ## 
    ## [[6]]
    ## # A tibble: 5,000 × 3
    ##    interval replication mean_waiting_time_unseen_nurse
    ##       <dbl>       <int>                          <dbl>
    ##  1       50           1                            NaN
    ##  2       50           2                            NaN
    ##  3       50           3                            NaN
    ##  4       50           4                            NaN
    ##  5       50           5                            NaN
    ##  6      100           1                            NaN
    ##  7      100           2                            NaN
    ##  8      100           3                            NaN
    ##  9      100           4                            NaN
    ## 10      100           5                            NaN
    ## # ℹ 4,990 more rows
…
