…
``` r
arrivals <- get_mon_arrivals(env, per_resource = TRUE, ongoing = TRUE)

# Add column marking warm-up (wu) and data-collection (dc) patients
arrivals <- arrivals %>%
  group_by(name) %>%
  # filter(all(start_time >= param[["warm_up_period"]])) %>%
  mutate(period = if_else(
    any(start_time < param[["warm_up_period"]]), "wu", "dc"
  )) %>%
  ungroup()
arrivals
```

    ## # A tibble: 62 × 7
    ##    name     start_time end_time activity_time resource replication period
    ##    <chr>         <dbl>    <dbl>         <dbl> <chr>          <int> <chr> 
    ##  1 patient0       3.02     4.48          1.46 nurse              1 wu    
    ##  2 patient0       4.48     5.88          1.40 doctor             1 wu    
    ##  3 patient2       9.49    14.9           5.40 nurse              1 wu    
    ##  4 patient3      14.4     15.9           1.47 nurse              1 wu    
    ##  5 patient3      15.9     23.5           7.62 doctor             1 wu    
    ##  6 patient2      14.9     28.8          13.9  doctor             1 wu    
    ##  7 patient5      23.2     33.5          10.4  nurse              1 wu    
    ##  8 patient6      27.4     34.0           6.55 nurse              1 wu    
    ##  9 patient1       7.75    36.7          28.9  nurse              1 wu    
    ## 10 patient5      33.5     36.9           3.37 doctor             1 wu    
    ## # ℹ 52 more rows
…
First, we must calculate the `resource_start_time` (as the `start_time`
in `arrivals` may be earlier if the patient had to wait for the
resource).

``` r
# Add column recording the resource start time (excluding wait time for resource)
arrivals[["resource_start_time"]] <- (
  arrivals[["end_time"]] - arrivals[["activity_time"]]
)
arrivals
```

    ## # A tibble: 62 × 8
    ##    name     start_time end_time activity_time resource replication period
    ##    <chr>         <dbl>    <dbl>         <dbl> <chr>          <int> <chr> 
    ##  1 patient0       3.02     4.48          1.46 nurse              1 wu    
    ##  2 patient0       4.48     5.88          1.40 doctor             1 wu    
    ##  3 patient2       9.49    14.9           5.40 nurse              1 wu    
    ##  4 patient3      14.4     15.9           1.47 nurse              1 wu    
    ##  5 patient3      15.9     23.5           7.62 doctor             1 wu    
    ##  6 patient2      14.9     28.8          13.9  doctor             1 wu    
    ##  7 patient5      23.2     33.5          10.4  nurse              1 wu    
    ##  8 patient6      27.4     34.0           6.55 nurse              1 wu    
    ##  9 patient1       7.75    36.7          28.9  nurse              1 wu    
    ## 10 patient5      33.5     36.9           3.37 doctor             1 wu    
    ## # ℹ 52 more rows
    ## # ℹ 1 more variable: resource_start_time <dbl>
…
``` r
# Create arrivals dataframe with rows for each patient's resource start and end time
arrivals_times <- arrivals %>%
  select(name, resource, resource_start_time, end_time, replication, period) %>%
  pivot_longer(cols = c(resource_start_time, end_time),
               names_to = "time_type",
               values_to = "time_value")

arrivals_times
```

    ## # A tibble: 124 × 6
    ##    name     resource replication period time_type           time_value
    ##    <chr>    <chr>          <int> <chr>  <chr>                    <dbl>
    ##  1 patient0 nurse              1 wu     resource_start_time       3.02
    ##  2 patient0 nurse              1 wu     end_time                  4.48
    ##  3 patient0 doctor             1 wu     resource_start_time       4.48
    ##  4 patient0 doctor             1 wu     end_time                  5.88
    ##  5 patient2 nurse              1 wu     resource_start_time       9.49
    ##  6 patient2 nurse              1 wu     end_time                 14.9 
    ##  7 patient3 nurse              1 wu     resource_start_time      14.4 
    ##  8 patient3 nurse              1 wu     end_time                 15.9 
    ##  9 patient3 doctor             1 wu     resource_start_time      15.9 
    ## 10 patient3 doctor             1 wu     end_time                 23.5 
    ## # ℹ 114 more rows
…
arrivals_times <- arrivals_times %>%
  arrange(time_value) %>%
  mutate(time_value_r = round(time_value, decimal_places))

resources <- resources %>%
  mutate(time_r = round(time, decimal_places))

# Preview
arrivals_times
```

    ## # A tibble: 124 × 7
    ##    name     resource replication period time_type        time_value time_value_r
    ##    <chr>    <chr>          <int> <chr>  <chr>                 <dbl>        <dbl>
    ##  1 patient0 nurse              1 wu     resource_start_…       3.02         3.02
    ##  2 patient0 nurse              1 wu     end_time               4.48         4.48
    ##  3 patient0 doctor             1 wu     resource_start_…       4.48         4.48
    ##  4 patient0 doctor             1 wu     end_time               5.88         5.88
    ##  5 patient1 nurse              1 wu     resource_start_…       7.75         7.75
    ##  6 patient2 nurse              1 wu     resource_start_…       9.49         9.49
    ##  7 patient3 nurse              1 wu     resource_start_…      14.4         14.4 
    ##  8 patient2 nurse              1 wu     end_time              14.9         14.9 
    ##  9 patient2 doctor             1 wu     resource_start_…      14.9         14.9 
    ## 10 patient3 nurse              1 wu     end_time              15.9         15.9 
    ## # ℹ 114 more rows
…
